module example.com/demo

go 1.22.1

require (
	github.com/aws/aws-sdk-go-v2 v1.25.2
	github.com/aws/aws-sdk-go-v2/config v1.27.6
	github.com/aws/aws-sdk-go-v2/service/dynamodb v1.30.3
	github.com/aws/aws-sdk-go-v2/service/s3 v1.51.3
	github.com/aws/smithy-go v1.20.1
	github.com/prometheus/client_golang v1.19.0
)

require (
	github.com/aws/aws-sdk-go-v2/aws/protocol/eventstream v1.6.1 // indirect
	github.com/aws/aws-sdk-go-v2/credentials v1.17.6 // indirect
	github.com/aws/aws-sdk-go-v2/feature/ec2/imds v1.15.2 // indirect
	github.com/aws/aws-sdk-go-v2/internal/configsources v1.3.2 // indirect
	github.com/aws/aws-sdk-go-v2/internal/endpoints/v2 v2.6.2 // indirect
	github.com/aws/aws-sdk-go-v2/internal/ini v1.8.0 // indirect
	github.com/aws/aws-sdk-go-v2/internal/v4a v1.3.2 // indirect
	github.com/aws/aws-sdk-go-v2/service/internal/accept-encoding v1.11.1 // indirect
	github.com/aws/aws-sdk-go-v2/service/internal/checksum v1.3.4 // indirect
	github.com/aws/aws-sdk-go-v2/service/internal/endpoint-discovery v1.9.3 // indirect
	github.com/aws/aws-sdk-go-v2/service/internal/presigned-url v1.11.4 // indirect
	github.com/aws/aws-sdk-go-v2/service/internal/s3shared v1.17.2 // indirect
	github.com/aws/aws-sdk-go-v2/service/sso v1.20.1 // indirect
	github.com/aws/aws-sdk-go-v2/service/ssooidc v1.23.1 // indirect
	github.com/aws/aws-sdk-go-v2/service/sts v1.28.3 // indirect
	github.com/beorn7/perks v1.0.1 // indirect
	github.com/cespare/xxhash/v2 v2.2.0 // indirect
	github.com/jmespath/go-jmespath v0.4.0 // indirect
	github.com/prometheus/client_model v0.5.0 // indirect
	github.com/prometheus/common v0.48.0 // indirect
	github.com/prometheus/procfs v0.12.0 // indirect
	golang.org/x/sys v0.16.0 // indirect
	google.golang.org/protobuf v1.32.0 // indirect
)
